
央视频道,#genre#
CCTV-1,http://[2409:8087:2001:20:2800:0:df6e:eb12]:80/wh7f454c46tw3964344116_67852184/ott.mobaibox.com/PLTV/3/224/3221227675/index.m3u8?icpid=3&RTS=1674379784&from=40&ocs=2_2409:8087:2001:20:2800:0:df6e:eb0f_80&popid=40&hms_devid=2112&prioritypopid=40&vqe=3
CCTV-1,http://[2409:8087:2001:20:2800:0:df6e:eb15]:80/wh7f454c46tw1925441929_1417964840/ott.mobaibox.com/PLTV/3/224/3221227467/index.m3u8?icpid=3&RTS=1674386335&from=40&ocs=2_2409:8087:2004:20:2800:0:df6e:ec0d_80&popid=40&hms_devid=2115&prioritypopid=40&vqe=3
CCTV-2,http://[2409:8087:2001:20:2800:0:df6e:eb0d]:80/wh7f454c46tw1528922594_677066330/ott.mobaibox.com/PLTV/3/224/3221227708/index.m3u8?icpid=3&RTS=1674385939&from=40&popid=40&hms_devid=2040&prioritypopid=40&vqe=3
CCTV-2,http://[2409:8087:2001:20:2800:0:df6e:eb12]:80/wh7f454c46tw1742213158_1775644325/ott.mobaibox.com/PLTV/3/224/3221227543/index.m3u8?icpid=3&RTS=1674386152&from=40&popid=40&hms_devid=2112&prioritypopid=40&vqe=3
CCTV-3,http://[2409:8087:2001:20:2800:0:df6e:eb10]:80/wh7f454c46tw3968745104_1595752942/ott.mobaibox.com/PLTV/3/224/3221227650/index.m3u8?icpid=3&RTS=1674379789&from=40&ocs=2_2409:8087:2001:20:2800:0:df6e:eb0c_80&popid=40&hms_devid=2110&prioritypopid=40&vqe=3
CCTV-3,http://[2409:8087:2001:20:2800:0:df6e:eb13]:80/wh7f454c46tw3969776637_-195437199/ott.mobaibox.com/PLTV/3/224/3221227546/index.m3u8?icpid=3&RTS=1674379790&from=40&popid=40&hms_devid=2112&prioritypopid=40&vqe=3
CCTV-4,http://[2409:8087:2001:20:2800:0:df6e:eb27]:80/wh7f454c46tw1530666835_1247714553/ott.mobaibox.com/PLTV/3/224/3221227658/index.m3u8?icpid=3&RTS=1674385941&from=40&ocs=2_2409:8087:2004:20:2800:0:df6e:ec07_80&popid=40&hms_devid=2293&prioritypopid=40&vqe=3
CCTV-4,http://[2409:8087:2001:20:2800:0:df6e:eb12]:80/wh7f454c46tw84322209_-1520654633/ott.mobaibox.com/PLTV/3/224/3221227549/index.m3u8?icpid=3&RTS=1674380199&from=40&popid=40&hms_devid=2112&prioritypopid=40&vqe=3
CCTV-5,http://[2409:8087:2001:20:2800:0:df6e:eb0f]:80/wh7f454c46tw85846347_1452024828/ott.mobaibox.com/PLTV/3/224/3221228173/index.m3u8?icpid=3&RTS=1674380201&from=40&ocs=2_2409:8087:2001:20:2800:0:df6e:eb13_80&popid=40&hms_devid=2111&prioritypopid=40&vqe=3
CCTV-5,http://[2409:8087:2001:20:2800:0:df6e:eb0b]:80/wh7f454c46tw87051090_192148031/ott.mobaibox.com/PLTV/3/224/3221227537/index.m3u8?icpid=3&RTS=1674380202&from=40&popid=40&hms_devid=2038&prioritypopid=40&vqe=3
CCTV-5+,http://[2409:8087:2001:20:2800:0:df6e:eb0d]:80/wh7f454c46tw1533189979_-984986636/ott.mobaibox.com/PLTV/3/224/3221228114/index.m3u8?icpid=3&RTS=1674385943&from=40&ocs=2_2409:8087:2001:20:2800:0:df6e:eb10_80&popid=40&hms_devid=2040&prioritypopid=40&vqe=3
CCTV-5+,http://[2409:8087:2001:20:2800:0:df6e:eb12]:80/wh7f454c46tw1533622857_-1749657613/ott.mobaibox.com/PLTV/3/224/3221227502/index.m3u8?icpid=3&RTS=1674385944&from=40&popid=40&hms_devid=2112&prioritypopid=40&vqe=3
CCTV-6,http://[2409:8087:2001:20:2800:0:df6e:eb0f]:80/wh7f454c46tw91569092_-532273102/ott.mobaibox.com/PLTV/3/224/3221228185/index.m3u8?icpid=3&RTS=1674380207&from=40&popid=40&hms_devid=2111&prioritypopid=40&vqe=3
CCTV-6,http://[2409:8087:2001:20:2800:0:df6e:eb12]:80/wh7f454c46tw1534504821_-1503272118/ott.mobaibox.com/PLTV/3/224/3221227505/index.m3u8?icpid=3&RTS=1674385944&from=40&popid=40&hms_devid=2112&prioritypopid=40&vqe=3
CCTV-7,http://[2409:8087:2001:20:2800:0:df6e:eb11]:80/wh7f454c46tw1534804996_666837910/ott.mobaibox.com/PLTV/3/224/3221227642/index.m3u8?icpid=3&RTS=1674385945&from=40&popid=40&hms_devid=2110&prioritypopid=40&vqe=3
CCTV-7,http://[2409:8087:2001:20:2800:0:df6e:eb26]:80/wh7f454c46tw2093183387_2029738236/ott.mobaibox.com/PLTV/3/224/3221228283/index.m3u8?icpid=3&RTS=1674468107&from=40&popid=40&hms_devid=2293&prioritypopid=40&vqe=3
CCTV-8,http://[2409:8087:2001:20:2800:0:df6e:eb12]:80/wh7f454c46tw1535268831_1299436249/ott.mobaibox.com/PLTV/3/224/3221228079/index.m3u8?icpid=3&RTS=1674385945&from=40&popid=40&hms_devid=2112&prioritypopid=40&vqe=3
CCTV-8,http://[2409:8087:2001:20:2800:0:df6e:eb12]:80/wh7f454c46tw1535864683_104020061/ott.mobaibox.com/PLTV/3/224/3221227473/index.m3u8?icpid=3&RTS=1674385946&from=40&popid=40&hms_devid=2112&prioritypopid=40&vqe=3
CCTV-9,http://[2409:8087:2001:20:2800:0:df6e:eb0a]:80/wh7f454c46tw2468865118_1937404571/ott.mobaibox.com/PLTV/3/224/3221227659/index.m3u8?icpid=3&RTS=1674386879&from=40&popid=40&hms_devid=2038&prioritypopid=40&vqe=3
CCTV-9,http://[2409:8087:2001:20:2800:0:df6e:eb17]:80/wh7f454c46tw1536262155_328032765/ott.mobaibox.com/PLTV/3/224/3221227704/index.m3u8?icpid=3&RTS=1674385946&from=40&popid=40&hms_devid=2114&prioritypopid=40&vqe=3
CCTV-10,http://[2409:8087:2001:20:2800:0:df6e:eb12]:80/wh7f454c46tw1536888658_607171036/ott.mobaibox.com/PLTV/3/224/3221227717/index.m3u8?icpid=3&RTS=1674385947&from=40&popid=40&hms_devid=2112&prioritypopid=40&vqe=3
CCTV-10,http://[2409:8087:2001:20:2800:0:df6e:eb21]:80/wh7f454c46tw96794082_1908050006/ott.mobaibox.com/PLTV/3/224/3221228286/index.m3u8?icpid=3&RTS=1674380212&from=40&popid=40&hms_devid=2290&prioritypopid=40&vqe=3
CCTV-11,http://[2409:8087:2001:20:2800:0:df6e:eb0a]:80/wh7f454c46tw97298359_-1902076166/ott.mobaibox.com/PLTV/3/224/3221227720/index.m3u8?icpid=3&RTS=1674380212&from=40&popid=40&hms_devid=2038&prioritypopid=40&vqe=3
CCTV-11,http://[2409:8087:2001:20:2800:0:df6e:eb23]:80/wh7f454c46tw1537747484_655821129/ott.mobaibox.com/PLTV/3/224/3221228289/index.m3u8?icpid=3&RTS=1674385948&from=40&popid=40&hms_devid=2291&prioritypopid=40&vqe=3
CCTV-12,http://[2409:8087:2001:20:2800:0:df6e:eb0a]:80/wh7f454c46tw97794338_-604599203/ott.mobaibox.com/PLTV/3/224/3221227655/index.m3u8?icpid=3&RTS=1674380213&from=40&popid=40&hms_devid=2038&prioritypopid=40&vqe=3
CCTV-12,http://[2409:8087:2001:20:2800:0:df6e:eb22]:80/wh7f454c46tw98162637_2110754422/ott.mobaibox.com/PLTV/3/224/3221228401/index.m3u8?icpid=3&RTS=1674380213&from=40&popid=40&hms_devid=2291&prioritypopid=40&vqe=3
CCTV-13,http://[2409:8087:2001:20:2800:0:df6e:eb0f]:80/wh7f454c46tw1538464012_-199930895/ott.mobaibox.com/PLTV/3/224/3221225560/index.m3u8?icpid=3&RTS=1674385948&from=40&popid=40&hms_devid=2111&prioritypopid=40&vqe=3
CCTV-13,http://[2409:8087:2001:20:2800:0:df6e:eb24]:80/wh7f454c46tw2444616252_100116641/ott.mobaibox.com/PLTV/3/224/3221228324/index.m3u8?icpid=3&RTS=1674369675&from=40&popid=40&hms_devid=2292&prioritypopid=40&vqe=3
CCTV-14,http://[2409:8087:2001:20:2800:0:df6e:eb0a]:80/wh7f454c46tw1746129949_-891071668/ott.mobaibox.com/PLTV/3/224/3221227656/index.m3u8?icpid=3&RTS=1674386156&from=40&popid=40&hms_devid=2038&prioritypopid=40&vqe=3
CCTV-14,http://[2409:8087:2001:20:2800:0:df6e:eb23]:80/wh7f454c46tw1184949553_1248271610/ott.mobaibox.com/PLTV/3/224/3221228292/index.m3u8?icpid=3&RTS=1674381300&from=40&popid=40&hms_devid=2291&prioritypopid=40&vqe=3
CCTV-15,http://[2409:8087:2001:20:2800:0:df6e:eb0a]:80/wh7f454c46tw2053177814_136071778/ott.mobaibox.com/PLTV/3/224/3221227723/index.m3u8?icpid=3&RTS=1674386463&from=40&popid=40&hms_devid=2038&prioritypopid=40&vqe=3
CCTV-15,http://[2409:8087:2001:20:2800:0:df6e:eb23]:80/wh7f454c46tw1248547286_2118050836/ott.mobaibox.com/PLTV/3/224/3221228404/index.m3u8?icpid=3&RTS=1674381363&from=40&popid=40&hms_devid=2291&prioritypopid=40&vqe=3
CCTV-16,http://[2409:8087:2001:20:2800:0:df6e:eb19]:80/wh7f454c46tw1269761993_1267691970/ott.mobaibox.com/PLTV/3/224/3221228320/index.m3u8?icpid=3&RTS=1674381385&from=40&popid=40&hms_devid=2113&prioritypopid=40&vqe=3
CCTV-16,http://[2409:8087:2001:20:2800:0:df6e:eb0a]:80/wh7f454c46tw1312175710_-1555934560/ott.mobaibox.com/PLTV/3/224/3221228144/index.m3u8?icpid=3&RTS=1674381427&from=40&popid=40&hms_devid=2038&prioritypopid=40&vqe=3
CCTV-16-4K,http://[2409:8087:2001:20:2800:0:df6e:eb04]:80/wh7f454c46tw3303805862_1451729760/ott.mobaibox.com/PLTV/3/224/3221228314/index.m3u8?icpid=3&RTS=1674379124&from=40&popid=40&hms_devid=2041&prioritypopid=40&vqe=3
CCTV-17,http://[2409:8087:2001:20:2800:0:df6e:eb0b]:80/wh7f454c46tw1746687450_313977963/ott.mobaibox.com/PLTV/3/224/3221227726/index.m3u8?icpid=3&RTS=1674386157&from=40&popid=40&hms_devid=2038&prioritypopid=40&vqe=3
CCTV-17,http://[2409:8087:2001:20:2800:0:df6e:eb22]:80/wh7f454c46tw1418270804_-738667041/ott.mobaibox.com/PLTV/3/224/3221228407/index.m3u8?icpid=3&RTS=1674381533&from=40&popid=40&hms_devid=2291&prioritypopid=40&vqe=3
CCTV-1,http://[2409:8087:2001:20:2800:0:df6e:eb07]/wh7f454c46tw3252572940_-481357165/ott.mobaibox.com/PLTV/3/224/3221227467/index.m3u8?icpid=3&RTS=1668593752&from=40&ocs=2_2409:8087:2001:20:2800:0:df6e:eb0a_80&popid=40&hms_devid=2036&prioritypopid=40&vqe=3
CCTV-2,http://[2409:8087:2001:20:2800:0:df6e:eb12]/wh7f454c46tw3589111099_-1793408755/ott.mobaibox.com/PLTV/3/224/3221227543/index.m3u8?icpid=3&RTS=1668594088&from=40&popid=40&hms_devid=2112&prioritypopid=40&vqe=3
CCTV-3,http://[2409:8087:2001:20:2800:0:df6e:eb18]/wh7f454c46tw3746132328_-1754088424/ott.mobaibox.com/PLTV/3/224/3221228126/index.m3u8?icpid=3&RTS=1668594245&from=40&popid=40&hms_devid=2113&prioritypopid=40&vqe=3
CCTV-4,http://[2409:8087:2001:20:2800:0:df6e:eb12]/wh7f454c46tw3772680253_-1555628407/ott.mobaibox.com/PLTV/3/224/3221227549/index.m3u8?icpid=3&RTS=1668594272&from=40&popid=40&hms_devid=2112&prioritypopid=40&vqe=3
CCTV-5,http://[2409:8087:2001:20:2800:0:df6e:eb15]/wh7f454c46tw3847208563_882248521/ott.mobaibox.com/PLTV/3/224/3221228179/index.m3u8?icpid=3&RTS=1668594346&from=40&popid=40&hms_devid=2115&prioritypopid=40&vqe=3
CCTV-5+,http://[2409:8087:2001:20:2800:0:df6e:eb26]/ott.mobaibox.com/PLTV/1/224/3221228277/index.m3u8
CCTV-6,http://[2409:8087:2001:20:2800:0:df6e:eb13]/wh7f454c46tw3940641123_459833286/ott.mobaibox.com/PLTV/3/224/3221227505/index.m3u8?icpid=3&RTS=1668594440&from=40&popid=40&hms_devid=2112&prioritypopid=40&vqe=3
CCTV-7,http://[2409:8087:2001:20:2800:0:df6e:eb26]/wh7f454c46tw3984282630_1427246842/ott.mobaibox.com/PLTV/3/224/3221228283/index.m3u8?icpid=3&RTS=1668594483&from=40&popid=40&hms_devid=2293&prioritypopid=40&vqe=3
CCTV-8,http://[2409:8087:2001:20:2800:0:df6e:eb12]/wh7f454c46tw4086984004_1136880123/ott.mobaibox.com/PLTV/3/224/3221227473/index.m3u8?icpid=3&RTS=1668594586&from=40&popid=40&hms_devid=2112&prioritypopid=40&vqe=3
CCTV-9,http://[2409:8087:2001:20:2800:0:df6e:eb21]/wh7f454c46tw4254168827_1850088835/ott.mobaibox.com/PLTV/3/224/3221228303/index.m3u8?icpid=3&RTS=1668594753&from=40&popid=40&hms_devid=2290&prioritypopid=40&vqe=3
CCTV-10,http://[2409:8087:2001:20:2800:0:df6e:eb21]/wh7f454c46tw30319478_-185824076/ott.mobaibox.com/PLTV/3/224/3221228286/index.m3u8?icpid=3&RTS=1668594824&from=40&popid=40&hms_devid=2290&prioritypopid=40&vqe=3
CCTV-11,http://[2409:8087:2001:20:2800:0:df6e:eb23]/wh7f454c46tw105619488_1866436632/ott.mobaibox.com/PLTV/3/224/3221228289/index.m3u8?icpid=3&RTS=1668594900&from=40&popid=40&hms_devid=2291&prioritypopid=40&vqe=3
CCTV-12,http://[2409:8087:2001:20:2800:0:df6e:eb23]/wh7f454c46tw185877003_-533945400/ott.mobaibox.com/PLTV/3/224/3221228401/index.m3u8?icpid=3&RTS=1668594980&from=40&popid=40&hms_devid=2291&prioritypopid=40&vqe=3
CCTV-13,http://[2409:8087:2001:20:2800:0:df6e:eb16]/wh7f454c46tw259647455_-1559913959/ott.mobaibox.com/PLTV/3/224/3221228224/index.m3u8?icpid=3&RTS=1668595054&from=40&popid=40&hms_devid=2114&prioritypopid=40&vqe=3
CCTV-14,http://[2409:8087:2001:20:2800:0:df6e:eb22]/wh7f454c46tw340147088_1594094424/ott.mobaibox.com/PLTV/3/224/3221228292/index.m3u8?icpid=3&RTS=1668595134&from=40&popid=40&hms_devid=2291&prioritypopid=40&vqe=3
CCTV-15,http://[2409:8087:2001:20:2800:0:df6e:eb22]/wh7f454c46tw434828587_188325560/ott.mobaibox.com/PLTV/3/224/3221228404/index.m3u8?icpid=3&RTS=1668595229&from=40&popid=40&hms_devid=2291&prioritypopid=40&vqe=3
CCTV-16,http://[2409:8087:2001:20:2800:0:df6e:eb0b]/wh7f454c46tw456909575_2098882473/ott.mobaibox.com/PLTV/3/224/3221228144/index.m3u8?icpid=3&RTS=1668595251&from=40&popid=40&hms_devid=2038&prioritypopid=40&vqe=3
CCTV-17,http://[2409:8087:2001:20:2800:0:df6e:eb23]/wh7f454c46tw483903016_-67353299/ott.mobaibox.com/PLTV/3/224/3221228407/index.m3u8?icpid=3&RTS=1668595278&from=40&popid=40&hms_devid=2291&prioritypopid=40&vqe=3
CCTV-1,http://[2409:8087:7004:20:1000::22]:6610/yinhe/2/ch00000090990000001068/index.m3u8?virtualDomain=yinhe.live_hls.zte.com
CCTV-2,http://[2409:8087:7004:20:1000::22]:6610/yinhe/2/ch00000090990000001293/index.m3u8?virtualDomain=yinhe.live_hls.zte.com
CCTV-3,http://[2409:8087:7004:20:1000::22]:6610/yinhe/2/ch00000090990000001598/index.m3u8?virtualDomain=yinhe.live_hls.zte.com
CCTV-4,http://[2409:8087:7004:20:1000::22]:6610/yinhe/2/ch00000090990000001290/index.m3u8?virtualDomain=yinhe.live_hls.zte.com
CCTV-5,http://[2409:8087:7004:20:1000::22]:6610/yinhe/2/ch00000090990000001850/index.m3u8?virtualDomain=yinhe.live_hls.zte.com
CCTV-5+,http://[2409:8087:7004:20:1000::22]:6610/yinhe/2/ch00000090990000001008/index.m3u8?virtualDomain=yinhe.live_hls.zte.com
CCTV-6,http://[2409:8087:7004:20:1000::22]:6610/yinhe/2/ch00000090990000001859/index.m3u8?virtualDomain=yinhe.live_hls.zte.com
CCTV-7,http://[2409:8087:7004:20:1000::22]:6610/yinhe/2/ch00000090990000001291/index.m3u8?virtualDomain=yinhe.live_hls.zte.com
CCTV-8,http://[2409:8087:7004:20:1000::22]:6610/yinhe/2/ch00000090990000001869/index.m3u8?virtualDomain=yinhe.live_hls.zte.com
CCTV-9,http://[2409:8087:7004:20:1000::22]:6610/yinhe/2/ch00000090990000001294/index.m3u8?virtualDomain=yinhe.live_hls.zte.com
CCTV-10,http://[2409:8087:7004:20:1000::22]:6610/yinhe/2/ch00000090990000001288/index.m3u8?virtualDomain=yinhe.live_hls.zte.com
CCTV-11,http://[2409:8087:7004:20:1000::22]:6610/yinhe/2/ch00000090990000001327/index.m3u8?virtualDomain=yinhe.live_hls.zte.com
CCTV-12,http://[2409:8087:7004:20:1000::22]:6610/yinhe/2/ch00000090990000001289/index.m3u8?virtualDomain=yinhe.live_hls.zte.com
CCTV-13,http://[2409:8087:7004:20:1000::22]:6610/yinhe/2/ch00000090990000001328/index.m3u8?virtualDomain=yinhe.live_hls.zte.com
CCTV-14,http://[2409:8087:7004:20:1000::22]:6610/yinhe/2/ch00000090990000001292/index.m3u8?virtualDomain=yinhe.live_hls.zte.com
CCTV-15,http://[2409:8087:7004:20:1000::22]:6610/yinhe/2/ch00000090990000001020/index.m3u8?virtualDomain=yinhe.live_hls.zte.com
CCTV-16,http://[2409:8087:7004:20:1000::22]:6610/yinhe/2/ch00000090990000002395/index.m3u8?virtualDomain=yinhe.live_hls.zte.com
CCTV-17,http://[2409:8087:7004:20:1000::22]:6610/yinhe/2/ch00000090990000001295/index.m3u8?virtualDomain=yinhe.live_hls.zte.com
CCTV-1,http://[2409:8087:1e03:21::2]:6060/cms001/ch00000090990000001022/index.m3u8
CCTV-2,http://[2409:8087:1e03:21::2]:6060/cms001/ch00000090990000001220/index.m3u8
CCTV-3,http://[2409:8087:1e03:21::2]:6060/cms001/ch00000090990000001186/index.m3u8
CCTV-4,http://[2409:8087:1e03:21::2]:6060/cms001/ch00000090990000001221/index.m3u8
CCTV-5,http://[2409:8087:1e03:21::2]:6060/cms001/ch00000090990000001187/index.m3u8
CCTV-6,http://[2409:8087:1e03:21::2]:6060/cms001/ch00000090990000001188/index.m3u8
CCTV-7,http://[2409:8087:1e03:21::2]:6060/cms001/ch00000090990000001236/index.m3u8
CCTV-8,http://[2409:8087:1e03:21::2]:6060/cms001/ch00000090990000001189/index.m3u8
CCTV-9,http://[2409:8087:1e03:21::2]:6060/cms001/ch00000090990000001237/index.m3u8
CCTV-10,http://[2409:8087:1e03:21::2]:6060/cms001/ch00000090990000001238/index.m3u8
CCTV-11,http://[2409:8087:1e03:21::2]:6060/cms001/ch00000090990000001309/index.m3u8
CCTV-12,http://[2409:8087:1e03:21::2]:6060/cms001/ch00000090990000001239/index.m3u8
CCTV-13,http://[2409:8087:1e03:21::2]:6060/cms001/ch00000090990000001328/index.m3u8
CCTV-14,http://[2409:8087:1e03:21::2]:6060/cms001/ch00000090990000001240/index.m3u8
CCTV-15,http://[2409:8087:1e03:21::2]:6060/cms001/ch00000090990000001338/index.m3u8
CCTV-16,http://[2409:8087:1e03:21::2]:6060/cms001/ch00000090990000001248/index.m3u8
CCTV-17,http://[2409:8087:1e03:21::2]:6060/cms001/ch00000090990000001241/index.m3u8
CCTV-1,http://[2409:8087:2001:20:2800:0:df6e:eb26]/ott.mobaibox.com/PLTV/1/224/3221228213/index.m3u8
CCTV-3,http://[2409:8087:2001:20:2800:0:df6e:eb20]/ott.mobaibox.com/PLTV/4/224/3221228499/index.m3u8
CCTV-3,http://[2409:8087:2001:20:2800:0:df6e:eb21]/ott.mobaibox.com/PLTV/3/224/3221228499/index.m3u8
CCTV-3,http://[2409:8087:2001:20:2800:0:df6e:eb26]/ott.mobaibox.com/PLTV/1/224/3221228188/index.m3u8
CCTV-4,http://[2409:8087:2001:20:2800:0:df6e:eb26]/ott.mobaibox.com/PLTV/1/224/3221228156/index.m3u8
CCTV-5,http://[2409:8087:2001:20:2800:0:df6e:eb22]/ott.mobaibox.com/PLTV/4/224/3221228502/index.m3u8
CCTV-6,http://[2409:8087:2001:20:2800:0:df6e:eb22]/ott.mobaibox.com/PLTV/4/224/3221228516/index.m3u8
CCTV-7,http://[2409:8087:2001:20:2800:0:df6e:eb26]/ott.mobaibox.com/PLTV/1/224/3221228283/index.m3u8
CCTV-8,http://[2409:8087:2001:20:2800:0:df6e:eb26]/ott.mobaibox.com/PLTV/4/224/3221228578/index.m3u8
CCTV-9,http://[2409:8087:2001:20:2800:0:df6e:eb20]/ott.mobaibox.com/PLTV/1/224/3221228303/index.m3u8
CCTV-10,http://[2409:8087:2001:20:2800:0:df6e:eb20]/ott.mobaibox.com/PLTV/1/224/3221228286/index.m3u8
CCTV-11,http://[2409:8087:2001:20:2800:0:df6e:eb23]/ott.mobaibox.com/PLTV/4/224/3221228289/index.m3u8
CCTV-13,http://[2409:8087:2001:20:2800:0:df6e:eb24]/ott.mobaibox.com/PLTV/1/224/3221228324/index.m3u8
CCTV-14,http://[2409:8087:2001:20:2800:0:df6e:eb22]/ott.mobaibox.com/PLTV/1/224/3221228292/index.m3u8
CCTV-15,http://[2409:8087:2001:20:2800:0:df6e:eb22]/ott.mobaibox.com/PLTV/1/224/3221228404/index.m3u8
CCTV-17,http://[2409:8087:2001:20:2800:0:df6e:eb22]/ott.mobaibox.com/PLTV/1/224/3221228407/index.m3u8
CCTV-1,http://221.2.36.34:8888/newlive/live/hls/2/live.m3u8
CCTV-2,http://221.2.36.34:8888/newlive/live/hls/3/live.m3u8
CCTV-4,http://221.2.36.34:8888/newlive/live/hls/5/live.m3u8
CCTV-5+,http://221.2.36.34:8888/newlive/live/hls/7/live.m3u8
CCTV-7,http://221.2.36.34:8888/newlive/live/hls/9/live.m3u8
CCTV-9,http://221.2.36.34:8888/newlive/live/hls/11/live.m3u8
CCTV-10,http://221.2.36.34:8888/newlive/live/hls/12/live.m3u8
CCTV-11,http://221.2.36.34:8888/newlive/live/hls/13/live.m3u8
CCTV-13,http://221.2.36.34:8888/newlive/live/hls/15/live.m3u8
CCTV-14,http://221.2.36.34:8888/newlive/live/hls/16/live.m3u8
CCTV-15,http://221.2.36.34:8888/newlive/live/hls/17/live.m3u8
CCTV-16,http://221.2.36.34:8888/newlive/live/hls/18/live.m3u8
CCTV-17,http://221.2.36.34:8888/newlive/live/hls/19/live.m3u8
CCTV-1,http://39.134.66.110/PLTV/88888888/224/3221225816/index.m3u8
CCTV-3,http://39.134.66.110/PLTV/88888888/224/3221225799/index.m3u8
CCTV-5,http://39.134.66.110/PLTV/88888888/224/3221225818/index.m3u8
CCTV-5+,http://39.134.66.110/PLTV/88888888/224/3221225507/index.m3u8
CCTV-6,http://39.134.66.110/PLTV/88888888/224/3221225814/index.m3u8
CCTV-7,http://39.134.66.110/PLTV/88888888/224/3221225671/index.m3u8
CCTV-8,http://39.134.66.110/PLTV/88888888/224/3221225795/index.m3u8
CCTV-9,http://39.134.66.110/PLTV/88888888/224/3221225676/index.m3u8
CCTV-10,http://39.134.66.110/PLTV/88888888/224/3221225677/index.m3u8
CCTV-12,http://39.134.66.110/PLTV/88888888/224/3221225669/index.m3u8
CCTV-14,http://39.134.66.110/PLTV/88888888/224/3221225674/index.m3u8
CCTV-17,http://39.134.66.110/PLTV/88888888/224/3221225708/index.m3u8
CCTV-1,http://dbiptv.sn.chinamobile.com/PLTV/88888890/224/3221226231/index.m3u8
CCTV-2,http://dbiptv.sn.chinamobile.com/PLTV/88888890/224/3221226195/index.m3u8
CCTV-3,http://dbiptv.sn.chinamobile.com/PLTV/88888890/224/3221226397/index.m3u8
CCTV-4,http://dbiptv.sn.chinamobile.com/PLTV/88888890/224/3221226191/index.m3u8
CCTV-5,http://dbiptv.sn.chinamobile.com/PLTV/88888890/224/3221226395/index.m3u8
CCTV-5+,http://dbiptv.sn.chinamobile.com/PLTV/88888890/224/3221226221/index.m3u8
CCTV-6,http://dbiptv.sn.chinamobile.com/PLTV/88888890/224/3221226393/index.m3u8
CCTV-7,http://dbiptv.sn.chinamobile.com/PLTV/88888890/224/3221226192/index.m3u8
CCTV-8,http://dbiptv.sn.chinamobile.com/PLTV/88888890/224/3221226391/index.m3u8
CCTV-9,http://dbiptv.sn.chinamobile.com/PLTV/88888890/224/3221226197/index.m3u8
CCTV-10,http://dbiptv.sn.chinamobile.com/PLTV/88888890/224/3221226189/index.m3u8
CCTV-11,http://dbiptv.sn.chinamobile.com/PLTV/88888890/224/3221226240/index.m3u8
CCTV-12,http://dbiptv.sn.chinamobile.com/PLTV/88888890/224/3221226190/index.m3u8
CCTV-13,http://dbiptv.sn.chinamobile.com/PLTV/88888890/224/3221226233/index.m3u8
CCTV-14,http://dbiptv.sn.chinamobile.com/PLTV/88888890/224/3221226193/index.m3u8
CCTV-15,http://dbiptv.sn.chinamobile.com/PLTV/88888890/224/3221225785/index.m3u8
CCTV-16,http://dbiptv.sn.chinamobile.com/PLTV/88888890/224/3221226921/index.m3u8
CCTV-17,http://dbiptv.sn.chinamobile.com/PLTV/88888890/224/3221226198/index.m3u8
CCTV-1,http://39.134.24.162/dbiptv.sn.chinamobile.com/PLTV/88888888/224/3221225804/1.m3u8
CCTV-1,http://39.134.24.166/dbiptv.sn.chinamobile.com/PLTV/88888888/224/3221225804/1.m3u8
CCTV-2,http://39.134.24.162/dbiptv.sn.chinamobile.com/PLTV/88888888/224/3221226195/1.m3u8
CCTV-2,http://39.134.24.162/dbiptv.sn.chinamobile.com/PLTV/88888888/224/3221226224/1.m3u8
CCTV-3,http://39.134.24.166/dbiptv.sn.chinamobile.com/PLTV/88888888/224/3221226397/1.m3u8
CCTV-4,http://39.134.24.162/dbiptv.sn.chinamobile.com/PLTV/88888888/224/3221226191/1.m3u8
CCTV-5,http://39.134.24.162/dbiptv.sn.chinamobile.com/PLTV/88888888/224/3221226395/1.m3u8
CCTV-5,http://39.134.24.166/dbiptv.sn.chinamobile.com/PLTV/88888888/224/3221226395/1.m3u8
CCTV-5+,http://39.134.24.166/dbiptv.sn.chinamobile.com/PLTV/88888888/224/3221225761/1.m3u8
CCTV-5+,http://39.134.24.162/dbiptv.sn.chinamobile.com/PLTV/88888888/224/3221225761/1.m3u8
CCTV-6,http://39.134.24.166/dbiptv.sn.chinamobile.com/PLTV/88888888/224/3221226393/1.m3u8
CCTV-7,http://39.134.24.166/dbiptv.sn.chinamobile.com/PLTV/88888888/224/3221226192/1.m3u8
CCTV-8,http://39.134.24.162/dbiptv.sn.chinamobile.com/PLTV/88888888/224/3221226012/1.m3u8
CCTV-8,http://39.134.24.162/dbiptv.sn.chinamobile.com/PLTV/88888888/224/3221226391/1.m3u8
CCTV-8,http://39.134.24.166/dbiptv.sn.chinamobile.com/PLTV/88888888/224/3221226012/1.m3u8
CCTV-8,http://39.134.24.166/dbiptv.sn.chinamobile.com/PLTV/88888888/224/3221226391/1.m3u8
CCTV-9,http://39.134.24.162/dbiptv.sn.chinamobile.com/PLTV/88888888/224/3221226197/1.m3u8
CCTV-9,http://39.134.24.166/dbiptv.sn.chinamobile.com/PLTV/88888888/224/3221226197/1.m3u8
CCTV-10,http://39.134.24.162/dbiptv.sn.chinamobile.com/PLTV/88888888/224/3221226189/1.m3u8

卫视频道,#genre#
大湾区卫视,http://www.namewee.xyz/gudou.php?id=1456
大湾区卫视,https://www.coolapk.com/link?url=http%3A%2F%2F39.134.24.162%2Fdbiptv.sn.chinamobile.com%2FPLTV%2F88888890%2F224%2F3221226218%2Findex.m3u8
大湾区卫视,https://www.coolapk.com/link?url=http%3A%2F%2Fdbiptv.sn.chinamobile.com%2FPLTV%2F88888890%2F224%2F3221226218%2Findex.m3u8
大湾区卫视,http://zteres.sn.chinamobile.com:6060/000000001000/2000000003000000045/1.m3u8?channel-id=hnbblive&Contentid=2000000003000000045&livemode=1&stbId=3
大湾区卫视,http://zteres.sn.chinamobile.com:6060/000000001000/1000000002000011619/1.m3u8?channel-id=ystenlive&Contentid=1000000002000011619&livemode=1&stbId=3
广东卫视,http://www.namewee.xyz/gudou.php?id=1401
广东卫视,http://dbiptv.sn.chinamobile.com/PLTV/88888890/224/3221226216/index.m3u8
浙江卫视,http://39.134.65.162/PLTV/88888888/224/3221225514/1.m3u8
浙江卫视,http://39.134.65.175/PLTV/88888888/224/3221225514/1.m3u8
浙江卫视,http://39.134.65.179/PLTV/88888888/224/3221225514/1.m3u8
浙江卫视,http://39.134.65.173/PLTV/88888888/224/3221225514/1.m3u8
湖南卫视,http://39.134.65.181/PLTV/88888888/224/3221225506/1.m3u8
湖南卫视,http://39.134.65.173/PLTV/88888888/224/3221225506/1.m3u8
湖南卫视,http://39.134.65.166/PLTV/88888888/224/3221225506/1.m3u8
湖南卫视,http://39.134.65.183/PLTV/88888888/224/3221225506/1.m3u8
湖南卫视,http://39.134.65.175/PLTV/88888888/224/3221225506/1.m3u8
北京卫视,http://39.134.65.179/PLTV/88888888/224/3221225678/1.m3u8
北京卫视,http://39.134.65.164/PLTV/88888888/224/3221225678/1.m3u8
北京卫视,http://39.134.65.166/PLTV/88888888/224/3221225678/1.m3u8
北京卫视,http://39.134.65.173/PLTV/88888888/224/3221225678/1.m3u8
湖北卫视,http://39.134.65.164/PLTV/88888888/224/3221225569/1.m3u8
湖北卫视,http://39.134.65.162/PLTV/88888888/224/3221225569/1.m3u8
黑龙江卫视,http://[2409:8087:1a01:df::4001]/ottrrs.hl.chinamobile.com/PLTV/88888888/224/3221226327/1.m3u8
黑龙江卫视,http://[2409:8087:1a01:df::4077]/ottrrs.hl.chinamobile.com/PLTV/88888888/224/3221226327/index.m3u8
安徽卫视,http://[2409:8087:1a01:df::4077]/ottrrs.hl.chinamobile.com/PLTV/88888888/224/3221226391/index.m3u8
安徽卫视,http://[2409:8087:7000:20:1000::22]:6060/yinhe/2/ch00000090990000001298/index.m3u8?virtualDomain=yinhe.live_hls.zte.com
安徽卫视,http://[2409:8087:7000:20:1000::22]:6060/yinhe/2/ch00000090990000001346/index.m3u8?virtualDomain=yinhe.live_hls.zte.com
北京卫视,http://[2409:8087:1a01:df::4077]/ottrrs.hl.chinamobile.com/PLTV/88888888/224/3221226450/index.m3u8
北京卫视,http://[2409:8087:7000:20:1000::22]:6060/yinhe/2/ch00000090990000001335/index.m3u8?virtualDomain=yinhe.live_hls.zte.com
重庆卫视,http://[2409:8087:1a01:df::4077]/ottrrs.hl.chinamobile.com/PLTV/88888888/224/3221226409/index.m3u8
重庆卫视,http://[2409:8087:2001:20:2800:0:df6e:eb09]/wh7f454c46tw2787424866_142914197/ott.mobaibox.com/PLTV/3/224/3221228133/index.m3u8?icpid=3&RTS=1669701388&from=40&popid=40&hms_devid=2037&prioritypopid=40&vqe=3
东方卫视,http://[2409:8087:1a01:df::4077]/ottrrs.hl.chinamobile.com/PLTV/88888888/224/3221226345/index.m3u8
东方卫视,http://[2409:8087:7000:20:1000::22]:6060/yinhe/2/ch00000090990000001336/index.m3u8?virtualDomain=yinhe.live_hls.zte.com
东南卫视,http://[2409:8087:1a01:df::4077]/ottrrs.hl.chinamobile.com/PLTV/88888888/224/3221226341/index.m3u8
东南卫视,http://[2409:8087:2001:20:2800:0:df6e:eb0a]/wh7f454c46tw2900649569_-743777193/ott.mobaibox.com/PLTV/3/224/3221227670/index.m3u8?icpid=3&RTS=1669701501&from=40&popid=40&hms_devid=2038&prioritypopid=40&vqe=3
甘肃卫视,http://[2409:8087:2001:20:2800:0:df6e:eb1a]/wh7f454c46tw1400573680_-1979013462/ott.mobaibox.com/PLTV/3/224/3221227568/index.m3u8?icpid=3&RTS=1668600490&from=40&popid=40&hms_devid=2116&prioritypopid=40&vqe=3
甘肃卫视,http://[2409:8087:74F1:0021::0008]:80/270000001111/1110000322/index.m3u8?IASHttpSessionId=OTT
广西卫视,http://[2409:8087:2001:20:2800:0:df6e:eb05]/wh7f454c46tw2325655923_1638953995/ott.mobaibox.com/PLTV/3/224/3221228183/index.m3u8?icpid=3&RTS=1669700926&from=40&popid=40&hms_devid=2041&prioritypopid=40&vqe=3
贵州卫视,http://[2409:8087:1a01:df::4077]/ottrrs.hl.chinamobile.com/PLTV/88888888/224/3221226474/index.m3u8
贵州卫视,http://[2409:8087:2001:20:2800:0:df6e:eb08]/wh7f454c46tw2087544744_109645303/ott.mobaibox.com/PLTV/3/224/3221228136/index.m3u8?icpid=3&RTS=1669700688&from=40&popid=40&hms_devid=2037&prioritypopid=40&vqe=3
海南卫视,http://[2409:8087:2001:20:2800:0:df6e:eb08]/wh7f454c46tw2843123663_1489055229/ott.mobaibox.com/PLTV/3/224/3221228139/index.m3u8?icpid=3&RTS=1669701444&from=40&popid=40&hms_devid=2037&prioritypopid=40&vqe=3
河北卫视,http://[2409:8087:2001:20:2800:0:df6e:eb05]/wh7f454c46tw1698524218_988816054/ott.mobaibox.com/PLTV/3/224/3221228106/index.m3u8?icpid=3&RTS=1669700299&from=40&popid=40&hms_devid=2041&prioritypopid=40&vqe=3
河南卫视,http://[2409:8087:1a01:df::4077]/ottrrs.hl.chinamobile.com/PLTV/88888888/224/3221226480/index.m3u8
河南卫视,http://[2409:8087:2001:20:2800:0:df6e:eb17]/wh7f454c46tw1784575403_-1712002709/ott.mobaibox.com/PLTV/3/224/3221228221/index.m3u8?icpid=3&RTS=1669700385&from=40&popid=40&hms_devid=2114&prioritypopid=40&vqe=3
湖北卫视,http://[2409:8087:7000:20:1000::22]:6060/yinhe/2/ch00000090990000001347/index.m3u8?virtualDomain=yinhe.live_hls.zte.com
湖南卫视,http://[2409:8087:7000:20:1000::22]:6060/yinhe/2/ch00000090990000001339/index.m3u8?virtualDomain=yinhe.live_hls.zte.com
吉林卫视,http://[2409:8087:2001:20:2800:0:df6e:eb03]/wh7f454c46tw1874077489_789689702/ott.mobaibox.com/PLTV/3/224/3221228130/index.m3u8?icpid=3&RTS=1669700475&from=40&popid=40&hms_devid=2039&prioritypopid=40&vqe=3
江苏卫视,http://[2409:8087:1a01:df::4077]/ottrrs.hl.chinamobile.com/PLTV/88888888/224/3221226310/index.m3u8
江苏卫视,http://[2409:8087:2001:20:2800:0:df6e:eb12]/wh7f454c46tw2983110475_-1591539074/ott.mobaibox.com/PLTV/3/224/3221228097/index.m3u8?icpid=3&RTS=1668597777&from=40&popid=40&hms_devid=2112&prioritypopid=40&vqe=3
江苏卫视,http://[2409:8087:7000:20:1000::22]:6060/yinhe/2/ch00000090990000001344/index.m3u8?virtualDomain=yinhe.live_hls.zte.com
江西卫视,http://[2409:8087:1a01:df::4077]/ottrrs.hl.chinamobile.com/PLTV/88888888/224/3221226344/index.m3u8
辽宁卫视,http://[2409:8087:2001:20:2800:0:df6e:eb16]/wh7f454c46tw3102310989_-1844874138/ott.mobaibox.com/PLTV/3/224/3221227485/index.m3u8?icpid=3&RTS=1668597896&from=40&popid=40&hms_devid=2114&prioritypopid=40&vqe=3
辽宁卫视,http://[2409:8087:7000:20:1000::22]:6060/yinhe/2/ch00000090990000001340/index.m3u8?virtualDomain=yinhe.live_hls.zte.com
内蒙古卫视,http://[2409:8087:2001:20:2800:0:df6e:eb19]/wh7f454c46tw2228825807_1324573507/ott.mobaibox.com/PLTV/3/224/3221227557/index.m3u8?icpid=3&RTS=1669700829&from=40&popid=40&hms_devid=2113&prioritypopid=40&vqe=3
宁夏卫视,http://[2409:8087:2001:20:2800:0:df6e:eb06]/wh7f454c46tw2201703491_-1935318667/ott.mobaibox.com/PLTV/3/224/3221227563/index.m3u8?icpid=3&RTS=1669700802&from=40&popid=40&hms_devid=2036&prioritypopid=40&vqe=3
青海卫视,http://[2409:8087:2001:20:2800:0:df6e:eb1b]/wh7f454c46tw1221605145_-1738716276/ott.mobaibox.com/PLTV/3/224/3221227554/index.m3u8?icpid=3&RTS=1668600311&from=40&popid=40&hms_devid=2116&prioritypopid=40&vqe=3
山东卫视,http://[2409:8087:1a01:df::4077]/ottrrs.hl.chinamobile.com/PLTV/88888888/224/3221226456/index.m3u8
山东卫视,http://[2409:8087:7000:20:1000::22]:6060/yinhe/2/ch00000090990000001341/index.m3u8?virtualDomain=yinhe.live_hls.zte.com
山西卫视,http://[2409:8087:2001:20:2800:0:df6e:eb06]/wh7f454c46tw1574076400_-2066173512/ott.mobaibox.com/PLTV/3/224/3221227559/index.m3u8?icpid=3&RTS=1669700175&from=40&popid=40&hms_devid=2036&prioritypopid=40&vqe=3
陕西卫视,http://[2409:8087:2001:20:2800:0:df6e:eb1b]/wh7f454c46tw2360314992_451435426/ott.mobaibox.com/PLTV/3/224/3221227583/index.m3u8?icpid=3&RTS=1669700961&from=40&popid=40&hms_devid=2116&prioritypopid=40&vqe=3
四川卫视,http://[2409:8087:1a01:df::4077]/ottrrs.hl.chinamobile.com/PLTV/88888888/224/3221226338/index.m3u8
四川卫视,http://[2409:8087:2001:20:2800:0:df6e:eb09]/wh7f454c46tw2502717081_11504314/ott.mobaibox.com/PLTV/3/224/3221227556/index.m3u8?icpid=3&RTS=1669701103&from=40&popid=40&hms_devid=2037&prioritypopid=40&vqe=3
深圳卫视,http://[2409:8087:1a01:df::4077]/ottrrs.hl.chinamobile.com/PLTV/88888888/224/3221226313/index.m3u8
深圳卫视,http://[2409:8087:7000:20:1000::22]:6060/yinhe/2/ch00000090990000001029/index.m3u8?virtualDomain=yinhe.live_hls.zte.com
深圳卫视,http://[2409:8087:7000:20:1000::22]:6060/yinhe/2/ch00000090990000001342/index.m3u8?virtualDomain=yinhe.live_hls.zte.com
三沙卫视,http://[2409:8087:5e01:34::21]:6610/ZTE_CMS/08984400000000060000000000000319/index.m3u8?IASHttpSessionId=OTT
三沙卫视,http://[2409:8087:5e01:34::21]:6610/ZTE_CMS/08984400000000060000000000000319/index.m3u8?fmmv6
三沙卫视,http://[2409:8087:5e01:34::27]:6610/ZTE_CMS/08984400000000060000000000000319/index.m3u8?IAS
三沙卫视,http://[2409:8087:5e00:24::1f]:6060/ZTE_CMS/08984400000000060000000000000319/1.m3u8
三沙卫视,http://[2409:8087:5e00:24::1e]:6060/000000001000/4600001000000000117/1.m3u8
三沙卫视,http://[2409:8087:2001:20:2800:0:df6e:eb20]:80/PLTV/1/224/3221231227/1.m3u8
天津卫视,http://[2409:8087:1a01:df::4077]/ottrrs.hl.chinamobile.com/PLTV/88888888/224/3221226459/index.m3u8
天津卫视,http://[2409:8087:7000:20:1000::22]:6060/yinhe/2/ch00000090990000001343/index.m3u8?virtualDomain=yinhe.live_hls.zte.com
西藏卫视,http://[2409:8087:2001:20:2800:0:df6e:eb1a]/wh7f454c46tw2622517887_102186588/ott.mobaibox.com/PLTV/3/224/3221227562/index.m3u8?icpid=3&RTS=1669701223&from=40&popid=40&hms_devid=2116&prioritypopid=40&vqe=3
新疆卫视,http://[2409:8087:2001:20:2800:0:df6e:eb0b]/wh7f454c46tw993550557_162751766/ott.mobaibox.com/PLTV/3/224/3221228290/index.m3u8?icpid=3&RTS=1668604377&from=40&popid=40&hms_devid=2038&prioritypopid=40&vqe=3
云南卫视,http://[2409:8087:2001:20:2800:0:df6e:eb18]/wh7f454c46tw1580749819_-793400395/ott.mobaibox.com/PLTV/3/224/3221227571/index.m3u8?icpid=3&RTS=1668600670&from=40&popid=40&hms_devid=2113&prioritypopid=40&vqe=3
浙江卫视,http://[2409:8087:1a01:df::4077]/ottrrs.hl.chinamobile.com/PLTV/88888888/224/3221226339/index.m3u8
北京卫视,http://[2409:8087:2001:20:2800:0:df6e:eb0b]/wh7f454c46tw2687876293_-1703018199/ott.mobaibox.com/PLTV/3/224/3221227508/index.m3u8?icpid=3&RTS=1668597482&from=40&popid=40&hms_devid=2038&prioritypopid=40&vqe=3
东方卫视,http://[2409:8087:2001:20:2800:0:df6e:eb16]/wh7f454c46tw2542426131_1585848046/ott.mobaibox.com/PLTV/3/224/3221227511/index.m3u8?icpid=3&RTS=1668597336&from=40&popid=40&hms_devid=2114&prioritypopid=40&vqe=3
浙江卫视,http://[2409:8087:2001:20:2800:0:df6e:eb11]/wh7f454c46tw1197826796_-265147758/ott.mobaibox.com/PLTV/3/224/3221227491/index.m3u8?icpid=3&RTS=1669699798&from=40&popid=40&hms_devid=2110&prioritypopid=40&vqe=3
江西卫视,http://[2409:8087:2001:20:2800:0:df6e:eb17]/wh7f454c46tw1965546073_-1364170119/ott.mobaibox.com/PLTV/3/224/3221228109/index.m3u8?icpid=3&RTS=1669700566&from=40&popid=40&hms_devid=2114&prioritypopid=40&vqe=3
深圳卫视,http://[2409:8087:2001:20:2800:0:df6e:eb11]/wh7f454c46tw3025923625_628894334/ott.mobaibox.com/PLTV/3/224/3221227555/index.m3u8?icpid=3&RTS=1668597820&from=40&popid=40&hms_devid=2110&prioritypopid=40&vqe=3
湖北卫视,http://[2409:8087:2001:20:2800:0:df6e:eb11]/wh7f454c46tw3059146177_-1525708880/ott.mobaibox.com/PLTV/3/224/3221227479/index.m3u8?icpid=3&RTS=1668597853&from=40&popid=40&hms_devid=2110&prioritypopid=40&vqe=3
天津卫视,http://[2409:8087:2001:20:2800:0:df6e:eb11]/wh7f454c46tw2730715388_788631706/ott.mobaibox.com/PLTV/3/224/3221227488/index.m3u8?icpid=3&RTS=1668597525&from=40&popid=40&hms_devid=2110&prioritypopid=40&vqe=3
安徽卫视,http://[2409:8087:2001:20:2800:0:df6e:eb12]/wh7f454c46tw2802330256_375747539/ott.mobaibox.com/PLTV/3/224/3221227558/index.m3u8?icpid=3&RTS=1668597596&from=40&popid=40&hms_devid=2112&prioritypopid=40&vqe=3
山东卫视,http://[2409:8087:2001:20:2800:0:df6e:eb10]/wh7f454c46tw2848465480_1677095697/ott.mobaibox.com/PLTV/3/224/3221227517/index.m3u8?icpid=3&RTS=1668597642&from=40&popid=40&hms_devid=2110&prioritypopid=40&vqe=3
广东卫视,http://[2409:8087:2001:20:2800:0:df6e:eb03]/wh7f454c46tw2917484419_-1632335828/ott.mobaibox.com/PLTV/3/224/3221227476/index.m3u8?icpid=3&RTS=1668597711&from=40&popid=40&hms_devid=2039&prioritypopid=40&vqe=3
黑龙江卫视,http://[2409:8087:2001:20:2800:0:df6e:eb17]/wh7f454c46tw3143044227_-926148572/ott.mobaibox.com/PLTV/3/224/3221227514/index.m3u8?icpid=3&RTS=1668597937&from=40&popid=40&hms_devid=2114&prioritypopid=40&vqe=3
云南卫视,http://[2409:8087:1e03:21::42]:6610/cms001/ch00000090990000001223/index.m3u8?
四川卫视,http://[2409:8087:1e03:21::42]:6610/cms001/ch00000090990000001130/index.m3u8?
江西卫视,http://[2409:8087:1e03:21::42]:6610/cms001/ch00000090990000001034/index.m3u8?
河南卫视,http://[2409:8087:1e03:21::11]:6610/cms001/ch00000090990000001222/index.m3u8?
海南卫视,http://[2409:8087:1e03:21::11]:6610/cms001/ch00000090990000001183/index.m3u8?
东南卫视,http://[2409:8087:1e03:21::13]:6610/cms001/ch00000090990000001201/index.m3u8?
吉林卫视,http://[2409:8087:1e03:21::42]:6610/cms001/ch00000090990000001225/index.m3u8?
湖南卫视,http://[2409:8087:1e03:21::42]:6610/cms001/ch00000090990000001026/index.m3u8?
广西卫视,http://[2409:8087:2001:20:2800:0:df6e:eb05]:80/wh7f454c46tw2325655923_1638953995/ott.mobaibox.com/PLTV/3/224/3221228183/index.m3u8
贵州卫视,http://[2409:8087:2001:20:2800:0:df6e:eb08]:80/wh7f454c46tw2087544744_109645303/ott.mobaibox.com/PLTV/3/224/3221228136/index.m3u8
甘肃卫视,http://[2409:8087:2001:20:2800:0:df6e:eb1a]:80/wh7f454c46tw1400573680_-1979013462/ott.mobaibox.com/PLTV/3/224/3221227568/index.m3u8
黑龙江卫视,http://[2409:8087:7004:20:1000::22]:6610/yinhe/2/ch00000090990000001030/index.m3u8?virtualDomain=yinhe.live_hls.zte.com
黑龙江卫视,http://[2409:8087:7004:20:1000::22]:6610/yinhe/2/ch00000090990000001338/index.m3u8?virtualDomain=yinhe.live_hls.zte.com
安徽卫视,http://[2409:8087:7004:20:1000::22]:6610/yinhe/2/ch00000090990000001298/index.m3u8?virtualDomain=yinhe.live_hls.zte.com
安徽卫视,http://[2409:8087:7004:20:1000::22]:6610/yinhe/2/ch00000090990000001346/index.m3u8?virtualDomain=yinhe.live_hls.zte.com
北京卫视,http://[2409:8087:7004:20:1000::22]:6610/yinhe/2/ch00000090990000001025/index.m3u8?virtualDomain=yinhe.live_hls.zte.com
北京卫视,http://[2409:8087:7004:20:1000::22]:6610/yinhe/2/ch00000090990000001335/index.m3u8?virtualDomain=yinhe.live_hls.zte.com
重庆卫视,http://[2409:8087:7004:20:1000::22]:6610/yinhe/2/ch00000090990000001297/index.m3u8?virtualDomain=yinhe.live_hls.zte.com
东方卫视,http://[2409:8087:7004:20:1000::22]:6610/yinhe/2/ch00000090990000001028/index.m3u8?virtualDomain=yinhe.live_hls.zte.com
东方卫视,http://[2409:8087:7004:20:1000::22]:6610/yinhe/2/ch00000090990000001336/index.m3u8?virtualDomain=yinhe.live_hls.zte.com
广东卫视,http://[2409:8087:7004:20:1000::22]:6610/yinhe/2/ch00000090990000001031/index.m3u8?virtualDomain=yinhe.live_hls.zte.com
广东卫视,http://[2409:8087:7004:20:1000::22]:6610/yinhe/2/ch00000090990000001337/index.m3u8?virtualDomain=yinhe.live_hls.zte.com
湖北卫视,http://[2409:8087:7004:20:1000::22]:6610/yinhe/2/ch00000090990000001299/index.m3u8?virtualDomain=yinhe.live_hls.zte.com
湖北卫视,http://[2409:8087:7004:20:1000::22]:6610/yinhe/2/ch00000090990000001347/index.m3u8?virtualDomain=yinhe.live_hls.zte.com
湖南卫视,http://[2409:8087:7004:20:1000::22]:6610/yinhe/2/ch00000090990000001027/index.m3u8?virtualDomain=yinhe.live_hls.zte.com
湖南卫视,http://[2409:8087:7004:20:1000::22]:6610/yinhe/2/ch00000090990000001339/index.m3u8?virtualDomain=yinhe.live_hls.zte.com
江苏卫视,http://[2409:8087:7004:20:1000::22]:6610/yinhe/2/ch00000090990000001032/index.m3u8?virtualDomain=yinhe.live_hls.zte.com
江苏卫视,http://[2409:8087:7004:20:1000::22]:6610/yinhe/2/ch00000090990000001344/index.m3u8?virtualDomain=yinhe.live_hls.zte.com
辽宁卫视,http://[2409:8087:7004:20:1000::22]:6610/yinhe/2/ch00000090990000001296/index.m3u8?virtualDomain=yinhe.live_hls.zte.com
辽宁卫视,http://[2409:8087:7004:20:1000::22]:6610/yinhe/2/ch00000090990000001340/index.m3u8?virtualDomain=yinhe.live_hls.zte.com
山东卫视,http://[2409:8087:7004:20:1000::22]:6610/yinhe/2/ch00000090990000001341/index.m3u8?virtualDomain=yinhe.live_hls.zte.com
深圳卫视,http://[2409:8087:7004:20:1000::22]:6610/yinhe/2/ch00000090990000001029/index.m3u8?virtualDomain=yinhe.live_hls.zte.com
深圳卫视,http://[2409:8087:7004:20:1000::22]:6610/yinhe/2/ch00000090990000001342/index.m3u8?virtualDomain=yinhe.live_hls.zte.com
天津卫视,http://[2409:8087:7004:20:1000::22]:6610/yinhe/2/ch00000090990000001343/index.m3u8?virtualDomain=yinhe.live_hls.zte.com
浙江卫视,http://[2409:8087:7004:20:1000::22]:6610/yinhe/2/ch00000090990000001026/index.m3u8?virtualDomain=yinhe.live_hls.zte.com
浙江卫视,http://[2409:8087:7004:20:1000::22]:6610/yinhe/2/ch00000090990000001345/index.m3u8?virtualDomain=yinhe.live_hls.zte.com
浙江卫视,http://[2409:8087:7000:20:1000::22]:6060/yinhe/2/ch00000090990000001345/index.m3u8?virtualDomain=yinhe.live_hls.zte.com
黑龙江卫视,http://[2409:8087:1e03:21::2]:6060/cms001/ch00000090990000001031/index.m3u8
安徽卫视,http://[2409:8087:1e03:21::2]:6060/cms001/ch00000090990000001037/index.m3u8
北京卫视,http://[2409:8087:1e03:21::2]:6060/cms001/ch00000090990000001029/index.m3u8
重庆卫视,http://[2409:8087:1e03:21::2]:6060/cms001/ch00000090990000001129/index.m3u8
东方卫视,http://[2409:8087:1e03:21::2]:6060/cms001/ch00000090990000001013/index.m3u8
东南卫视,http://[2409:8087:1e03:21::2]:6060/cms001/ch00000090990000001201/index.m3u8
甘肃卫视,http://[2409:8087:1e03:21::2]:6060/cms001/ch00000090990000001298/index.m3u8
广东卫视,http://[2409:8087:1e03:21::2]:6060/cms001/ch00000090990000001032/index.m3u8
广西卫视,http://[2409:8087:1e03:21::2]:6060/cms001/ch00000090990000001224/index.m3u8
贵州卫视,http://[2409:8087:1e03:21::2]:6060/cms001/ch00000090990000001184/index.m3u8
海南卫视,http://[2409:8087:1e03:21::2]:6060/cms001/ch00000090990000001183/index.m3u8
河北卫视,http://[2409:8087:1e03:21::2]:6060/cms001/ch00000090990000001229/index.m3u8
河南卫视,http://[2409:8087:1e03:21::2]:6060/cms001/ch00000090990000001222/index.m3u8
湖北卫视,http://[2409:8087:1e03:21::2]:6060/cms001/ch00000090990000001027/index.m3u8
湖南卫视,http://[2409:8087:1e03:21::2]:6060/cms001/ch00000090990000001026/index.m3u8
吉林卫视,http://[2409:8087:1e03:21::2]:6060/cms001/ch00000090990000001225/index.m3u8
江苏卫视,http://[2409:8087:1e03:21::2]:6060/cms001/ch00000090990000001033/index.m3u8
江西卫视,http://[2409:8087:1e03:21::2]:6060/cms001/ch00000090990000001034/index.m3u8
辽宁卫视,http://[2409:8087:1e03:21::2]:6060/cms001/ch00000090990000001035/index.m3u8
山东卫视,http://[2409:8087:1e03:21::2]:6060/cms001/ch00000090990000001028/index.m3u8
四川卫视,http://[2409:8087:1e03:21::2]:6060/cms001/ch00000090990000001130/index.m3u8
深圳卫视,http://[2409:8087:1e03:21::2]:6060/cms001/ch00000090990000001030/index.m3u8
天津卫视,http://[2409:8087:1e03:21::2]:6060/cms001/ch00000090990000001036/index.m3u8
云南卫视,http://[2409:8087:1e03:21::2]:6060/cms001/ch00000090990000001223/index.m3u8
浙江卫视,http://[2409:8087:1e03:21::2]:6060/cms001/ch00000090990000001023/index.m3u8
安徽卫视,http://[2409:8087:1e04:21::102]:6060/cms001/ch00000090990000001037/1.m3u8
北京卫视,http://[2409:8087:1e04:21::102]:6060/cms001/ch00000090990000001029/1.m3u8
东南卫视,http://[2409:8087:1e04:21::102]:6060/cms001/ch00000090990000001201/1.m3u8
甘肃卫视,http://[2409:8087:1e04:21::102]:6060/cms001/ch00000090990000001298/1.m3u8
广东卫视,http://[2409:8087:1e04:21::102]:6060/cms001/ch00000090990000001032/1.m3u8
广西卫视,http://[2409:8087:1e04:21::102]:6060/cms001/ch00000090990000001224/1.m3u8
贵州卫视,http://[2409:8087:1e04:21::102]:6060/cms001/ch00000090990000001184/1.m3u8
海南卫视,http://[2409:8087:1e04:21::102]:6060/cms001/ch00000090990000001183/1.m3u8
河北卫视,http://[2409:8087:1e04:21::102]:6060/cms001/ch00000090990000001229/1.m3u8
河南卫视,http://[2409:8087:1e04:21::102]:6060/cms001/ch00000090990000001222/1.m3u8
湖北卫视,http://[2409:8087:1e04:21::102]:6060/cms001/ch00000090990000001027/1.m3u8
吉林卫视,http://[2409:8087:1e04:21::102]:6060/cms001/ch00000090990000001225/1.m3u8
江苏卫视,http://[2409:8087:1e04:21::102]:6060/cms001/ch00000090990000001033/1.m3u8
江西卫视,http://[2409:8087:1e04:21::102]:6060/cms001/ch00000090990000001034/1.m3u8
辽宁卫视,http://[2409:8087:1e04:21::102]:6060/cms001/ch00000090990000001035/1.m3u8
山东卫视,http://[2409:8087:1e04:21::102]:6060/cms001/ch00000090990000001028/1.m3u8
四川卫视,http://[2409:8087:1e04:21::102]:6060/cms001/ch00000090990000001130/1.m3u8
深圳卫视,http://[2409:8087:1e04:21::102]:6060/cms001/ch00000090990000001030/1.m3u8
天津卫视,http://[2409:8087:1e04:21::102]:6060/cms001/ch00000090990000001036/1.m3u8
云南卫视,http://[2409:8087:1e04:21::102]:6060/cms001/ch00000090990000001223/1.m3u8
浙江卫视,http://[2409:8087:1e04:21::102]:6060/cms001/ch00000090990000001023/1.m3u8
重庆卫视,http://[2409:8087:1e04:21::102]:6060/cms001/ch00000090990000001129/1.m3u8
黑龙江卫视,http://[2409:8087:1e04:21::102]:6060/cms001/ch00000090990000001031/1.m3u8
安徽卫视,http://39.134.67.108/PLTV/88888888/224/3221225925/1.m3u8
北京卫视,http://39.134.67.108/PLTV/88888888/224/3221225931/1.m3u8
江西卫视,http://39.134.67.108/PLTV/88888888/224/3221225935/1.m3u8
江苏卫视,http://39.134.67.108/PLTV/88888888/224/3221225938/1.m3u8
东方卫视,http://39.134.67.108/PLTV/88888888/224/3221225942/1.m3u8
东南卫视,http://39.134.67.108/PLTV/88888888/224/3221225950/1.m3u8
西藏卫视,http://39.134.67.108/PLTV/88888888/224/3221225951/1.m3u8
山东卫视,http://39.134.67.108/PLTV/88888888/224/3221225952/1.m3u8
浙江卫视,http://39.134.67.108/PLTV/88888888/224/3221225959/1.m3u8
河北卫视,http://39.134.67.108/PLTV/88888888/224/3221225961/1.m3u8
重庆卫视,http://39.134.67.108/PLTV/88888888/224/3221225963/1.m3u8
广东卫视,http://39.134.67.108/PLTV/88888888/224/3221225966/1.m3u8
四川卫视,http://39.134.67.108/PLTV/88888888/224/3221225970/1.m3u8
天津卫视,http://39.134.67.108/PLTV/88888888/224/3221225972/1.m3u8
贵州卫视,http://39.134.67.108/PLTV/88888888/224/3221225974/1.m3u8
湖北卫视,http://39.134.67.108/PLTV/88888888/224/3221225975/1.m3u8
新疆卫视,http://39.134.67.108/PLTV/88888888/224/3221225999/1.m3u8
山西卫视,http://39.134.67.108/PLTV/88888888/224/3221226009/1.m3u8
吉林卫视,http://39.134.67.108/PLTV/88888888/224/3221226013/1.m3u8
内蒙古卫视,http://39.134.67.108/PLTV/88888888/224/3221226017/1.m3u8
海南卫视,http://39.134.67.108/PLTV/88888888/224/3221226026/1.m3u8
广西卫视,http://39.134.67.108/PLTV/88888888/224/3221226024/1.m3u8
宁夏卫视,http://39.134.67.108/PLTV/88888888/224/3221226028/1.m3u8
东南卫视,http://ottrrs.hl.chinamobile.com/PLTV/88888888/224/3221226341/index.m3u8
东方卫视,http://ottrrs.hl.chinamobile.com/PLTV/88888888/224/3221225735/index.m3u8
东方卫视,http://ottrrs.hl.chinamobile.com/PLTV/88888888/224/3221226345/index.m3u8
北京卫视,http://ottrrs.hl.chinamobile.com/PLTV/88888888/224/3221225728/index.m3u8
北京卫视,http://ottrrs.hl.chinamobile.com/PLTV/88888888/224/3221226450/index.m3u8
吉林卫视,http://ottrrs.hl.chinamobile.com/PLTV/88888888/224/3221226397/index.m3u8
四川卫视,http://ottrrs.hl.chinamobile.com/PLTV/88888888/224/3221226338/index.m3u8
天津卫视,http://ottrrs.hl.chinamobile.com/PLTV/88888888/224/3221225740/index.m3u8
天津卫视,http://ottrrs.hl.chinamobile.com/PLTV/88888888/224/3221226459/index.m3u8
安徽卫视,http://ottrrs.hl.chinamobile.com/PLTV/88888888/224/3221226391/index.m3u8
山东卫视,http://ottrrs.hl.chinamobile.com/PLTV/88888888/224/3221226456/index.m3u8
广东卫视,http://ottrrs.hl.chinamobile.com/PLTV/88888888/224/3221226248/index.m3u8
江苏卫视,http://ottrrs.hl.chinamobile.com/PLTV/88888888/224/3221225613/index.m3u8
江苏卫视,http://ottrrs.hl.chinamobile.com/PLTV/88888888/224/3221226310/index.m3u8
江西卫视,http://ottrrs.hl.chinamobile.com/PLTV/88888888/224/3221226344/index.m3u8
河北卫视,http://ottrrs.hl.chinamobile.com/PLTV/88888888/224/3221226406/index.m3u8
河南卫视,http://ottrrs.hl.chinamobile.com/PLTV/88888888/224/3221226480/index.m3u8
浙江卫视,http://ottrrs.hl.chinamobile.com/PLTV/88888888/224/3221225612/index.m3u8
浙江卫视,http://ottrrs.hl.chinamobile.com/PLTV/88888888/224/3221226339/index.m3u8
海南卫视,http://ottrrs.hl.chinamobile.com/PLTV/88888888/224/3221226465/index.m3u8
湖北卫视,http://ottrrs.hl.chinamobile.com/PLTV/88888888/224/3221225627/index.m3u8
湖北卫视,http://ottrrs.hl.chinamobile.com/PLTV/88888888/224/3221226477/index.m3u8
湖南卫视,http://ottrrs.hl.chinamobile.com/PLTV/88888888/224/3221225610/index.m3u8
湖南卫视,http://ottrrs.hl.chinamobile.com/PLTV/88888888/224/3221226307/index.m3u8
贵州卫视,http://ottrrs.hl.chinamobile.com/PLTV/88888888/224/3221226474/index.m3u8
重庆卫视,http://ottrrs.hl.chinamobile.com/PLTV/88888888/224/3221226409/index.m3u8
深圳卫视,http://ottrrs.hl.chinamobile.com/PLTV/88888888/224/3221226313/index.m3u8
天津卫视,http://39.134.65.166/PLTV/88888888/224/3221225665/1.m3u8
山东卫视,http://39.134.65.141/PLTV/88888888/224/3221225952/1.m3u8
江苏卫视,http://39.134.65.175/PLTV/88888888/224/3221225503/1.m3u8
江苏卫视,http://39.134.65.181/PLTV/88888888/224/3221225503/1.m3u8
江苏卫视,http://39.134.65.183/PLTV/88888888/224/3221225503/1.m3u8
江苏卫视,http://39.134.65.173/PLTV/88888888/224/3221225503/1.m3u8
东方卫视,http://39.134.65.164/PLTV/88888888/224/3221225672/1.m3u8
东方卫视,http://39.134.65.179/PLTV/88888888/224/3221225672/1.m3u8
东方卫视,http://39.134.65.173/PLTV/88888888/224/3221225672/1.m3u8
东方卫视,http://39.134.65.175/PLTV/88888888/224/3221225672/1.m3u8
贵州卫视,http://39.134.65.149/PLTV/88888888/224/3221225974/1.m3u8
吉林卫视,http://39.134.65.149/PLTV/88888888/224/3221225981/1.m3u8

广东频道,#genre#
广东珠江,http://ci.emdoor.tech:8080/touchtv.php?pk=1183
广东珠江,http://www.namewee.xyz/gudou.php?id=gdzhujiangHD_7500
广东珠江,http://121.13.164.33:8000/udp/239.77.0.1:5146
广东珠江,http://119.131.240.27:8089/hls/2/index.m3u8
广东珠江,http://zteres.sn.chinamobile.com:6060/000000001000/2000000003000000033/1.m3u8?channel-id=hnbblive&Contentid=2000000003000000033&livemode=1&stbId=3
广东珠江,http://gxdl-lhs.8866.org:85/tsfile/live/1000_1.m3u8?key=txiptv&playlive=1&authid=0
广东珠江,http://gmxw.7766.org:808/hls/83/index.m3u8
广东珠江,http://39.134.19.229:6410/000000001000/1000000004000011655/1.m3u8?channel-id=ystenlive&Contentid=1000000004000011655&livemode=1&stbId=3&IASHttpSessionId=RR503720231124053529907980
开平综合,http://ci.emdoor.tech:8080/touchtv.php?pk=2405
开平综合,https://skype.serv00.net/itouch.php?id=kpzh
开平生活,http://ci.emdoor.tech:8080/touchtv.php?pk=2406
开平生活,https://skype.serv00.net/itouch.php?id=kpsh
江门综合,http://www.namewee.xyz/gudou.php?id=jiangmenzongheHD
江门综合,http://yzfvip.top:8000/rtp/239.77.0.201:5146
江门综合,http://125.92.140.226:8888/udp/239.77.0.201:5146
江门综合,http://suixiaobin.dsmynas.net:5666/gudou.php?phone=18998910474&ptoken=SZESNUL4i2PcZZKV1JA9jw%3D%3D&pserialnumber=63eee104cf9602bf&cid=860&id=3712_1500
江门侨乡生活,http://www.namewee.xyz/gudou.php?id=jiangmenyitao_1500
江门侨乡生活,http://yzfvip.top:8000/rtp/239.77.0.202:5146
江门侨乡生活,http://suixiaobin.dsmynas.net:5666/gudou.php?phone=18998910474&ptoken=SZESNUL4i2PcZZKV1JA9jw%3D%3D&pserialnumber=63eee104cf9602bf&cid=860&id=jiangmenyitao_1500
广东体育,http://www.namewee.xyz/gudou.php?id=1413
广东体育,https://skype.serv00.net/itouch.php?id=gdty
广东体育,http://180.97.247.27/4403-tx.otvstream.otvcloud.com/otv/skcc/live/channel34/index.m3u8
广东体育,http://lhq-cctv.8866.org:18181/tsfile/live/1026_1.m3u8
广东新闻,http://www.namewee.xyz/gudou.php?id=1454
广东新闻,http://ci.emdoor.tech:8080/touchtv.php?pk=1186
广东新闻,http://lhq-cctv.8866.org:18181/tsfile/live/1023_1.m3u8
广东卫视,http://www.namewee.xyz/gudou.php?id=1401
广东卫视,http://dbiptv.sn.chinamobile.com/PLTV/88888890/224/3221226216/index.m3u8
大湾区卫视,http://www.namewee.xyz/gudou.php?id=1456
大湾区卫视,https://www.coolapk.com/link?url=http%3A%2F%2F39.134.24.162%2Fdbiptv.sn.chinamobile.com%2FPLTV%2F88888890%2F224%2F3221226218%2Findex.m3u8
大湾区卫视,https://www.coolapk.com/link?url=http%3A%2F%2Fdbiptv.sn.chinamobile.com%2FPLTV%2F88888890%2F224%2F3221226218%2Findex.m3u8
大湾区卫视,http://zteres.sn.chinamobile.com:6060/000000001000/2000000003000000045/1.m3u8?channel-id=hnbblive&Contentid=2000000003000000045&livemode=1&stbId=3
大湾区卫视,http://zteres.sn.chinamobile.com:6060/000000001000/1000000002000011619/1.m3u8?channel-id=ystenlive&Contentid=1000000002000011619&livemode=1&stbId=3
新会综合,http://www.namewee.xyz/gudou.php?id=xinhui_1500
鹤山综合,http://www.namewee.xyz/gudou.php?id=3709
广州综合,http://www.namewee.xyz/gudou.php?id=gzhounewsHD
广州综合,https://justsometime.gztv.com/sec/zhonghe.m3u8
广州新闻,http://www.namewee.xyz/gudou.php?id=gzhouzongheHD
广州新闻,https://justsometime.gztv.com/sec/xinwen.m3u8
广州竞赛,http://www.namewee.xyz/gudou.php?id=gzfilmsgaoqing
广州影视,https://justsometime.gztv.com/sec/yingshi.m3u8
广州影视,http://www.namewee.xyz/gudou.php?id=gzcompetitiongaoqing
佛山综合,http://www.namewee.xyz/gudou.php?id=foshanzongheHD_4500
佛山公共,http://www.namewee.xyz/gudou.php?id=foshangonggongHD_4500
佛山影视,http://www.namewee.xyz/gudou.php?id=foshanyingshiHD_4500
顺德综合,http://www.namewee.xyz/gudou.php?id=shundeHD_4500
珠海,http://www.namewee.xyz/gudou.php?id=zhuhaiHD1_4500
珠海,http://www.namewee.xyz/gudou.php?id=zhuhaiHD2_4500
深圳卫视,http://111.193.107.119:4022/rtp/239.3.1.134:8020
深圳卫视,https://iptv.luas.edu.cn/liverespath/536ebe8b7165b25c8670e42eb8b7b4b6d178f158/a98f61eca9-0-0-c5ea37622772aa5d5e0d8838c68c61d9/index.m3u8
深圳卫视,https://epg.pw/stream/f71ce2c8d3869cd398598fccaa3ae45c79fc432743b033a33f58b7b2abd51c41.m3u8

港·澳·台,#genre#
翡翠台,https://edge6a.v2h-cdn.com/jade/jade.stream/chunklist.m3u8
翡翠台,http://198.16.100.90:8278/Wlt/playlist.m3u8?tid=MC9C7523788875237888&ct=19225&tsum=fc74aa160d3ca61369c2e5f3ae79ee8e
翡翠台,http://tvdrs.wsrtv.com.cn:8100/channellive/ch1.flv
翡翠台,http://line.premiumpowers.net/play/live.php?mac=00:1A:79:73:45:10&extension=ts&stream=571187
翡翠台,http://qwas.eatuo.com:9901/tsfile/live/1013_1.m3u8
纬来体育,https://epg.pw/stream/4f18dfe0593db5c686eb64ae8edaf2a9202d4d46bdc9bbde2cee27708e12ea01.m3u8
纬来体育,http://198.16.100.90:8278/videolandsport/playlist.m3u8?tid=MA6A1192684511926845&ct=19226&tsum=0b7ca9a61e7371df68108a27dc358c68
纬来体育,http://dtv21.org:8080/play/live.php?mac=00:1A:79:00:21:D9&extension=ts&stream=482615
纬来体育,http://tianhewan.top/ZIPP.php?url=http://211.72.65.236:8585/.m3u8
爱尔达体育,http://198.16.100.90:8278/eltasport2_twn/playlist.m3u8?tid=MCDC5093685750936857&ct=19225&tsum=592e009b281ea2abc43b21768cb1bec0
爱尔达体育,http://50.7.238.114:8278/eltasport2_twn/playlist.m3u8?tid=ME3E4844502848445028&ct=19317&tsum=035fc643389fcb4a6bf124bca1248aab
ELEVEN体育,http://50.7.238.114:8278/golfchannel_twn/playlist.m3u8?tid=m43df9270caf7&ct=18335&tsum=3bcc02e810e7073b86bb40d392e95f23
ELEVEN体育,http://50.7.238.114:8278/golfchannel_twn/playlist.m3u8?tid=MFBF2798068027980680&ct=18393&tsum=d8204023f67120512c75a8882f121120
明珠台,http://r.jdshipin.com/ZQ4kN
星河台,http://113.117.74.12:8081/hls/135/index.m3u8
凤凰中文,http://210.210.155.37/uq2663/h/h157/index2.m3u8
凤凰中文,http://198.16.100.90:8278/phoenixtv_hd/playlist.m3u8?tid=MFBF2713938527139385&ct=19225&tsum=1c8ca0899277714ab83db57245220068
凤凰中文,http://pi.0472.org/tv/cbn.php?id=xfjcHD
凤凰中文,http://[2409:8087:2001:20:2800:0:df6e:eb24]/ott.js.chinamobile.com/PLTV/3/224/3221228527/index.m3u8
凤凰中文,http://[2409:8087:2001:20:2800:0:df6e:eb24]/ott.mobaibox.com/PLTV/3/224/3221228527/index.m3u8
凤凰资讯,http://[2409:8087:2001:20:2800:0:df6e:eb26]/ott.js.chinamobile.com/PLTV/3/224/3221228524/index.m3u8
凤凰资讯,http://[2409:8087:2001:20:2800:0:df6e:eb26]:80/PLTV/1/224/3221231003/1.m3u8
凤凰资讯,http://[2409:8087:2001:20:2800:0:df6e:eb26]:80/ott.mobaibox.com/PLTV/4/224/3221228524/index.m3u8
凤凰资讯,http://[2409:8087:2001:20:2800:0:df6e:eb27]/ott.mobaibox.com/PLTV/3/224/3221228524/index.m3u8
凤凰资讯,http://[2409:8087:2001:20:2800:0:df6e:eb27]/wh7f454c46tw3352677969_1732462333/ott.mobaibox.com/PLTV/3/224/3221228524/index.m3u8
凤凰香港,http://[2409:8087:2001:20:2800:0:df6e:eb1d]:80/PLTV/1/224/3221231041/1.m3u8
凤凰香港,http://[2409:8087:2001:20:2800:0:df6e:eb1d]:80/ott.mobaibox.com/PLTV/1/224/3221228530/1.m3u8
凤凰香港,http://lcx-olt.8866.org:8181/tsfile/live/1071_1.m3u8
TVBS亚洲,http://38.64.72.148/hls/modn/list/4005/chunklist1.m3u8
TVBS亚洲,http://38.64.72.148:80/hls/modn/list/4005/chunklist1.m3u8
TVBS新闻,http://38.64.72.148/hls/modn/list/4006/chunklist0.m3u8
TVBS新闻,http://38.64.72.148/hls/modn/list/4006/chunklist1.m3u8
TVBS新闻,http://38.64.72.148:80/hls/modn/list/4006/chunklist0.m3u8
TVBS新闻,http://38.64.72.148:80/hls/modn/list/4006/chunklist1.m3u8
TVBS欢乐,http://50.7.238.114:8278/tvbshuanle_twn/playlist.m3u8?ct=19193&tid=MC8C2318787923187879&tsum=394d2b9af3df7846e2cdc60d69dd4219
TVBS亚洲,http://38.64.72.148/hls/modn/list/4005/playlist.m3u8
TVBS亚洲,http://38.64.72.148:80/hls/modn/list/4005/chunklist0.m3u8
TVBS亚洲,http://38.64.72.148:80/hls/modn/list/4005/chunklist1.m3u8
TVBS亚洲,http://38.64.72.148:80/hls/modn/list/4005/playlist.m3u8
TVBS新闻,http://38.64.72.148/hls/modn/list/4006/chunklist0.m3u8
TVBS新闻,http://38.64.72.148/hls/modn/list/4006/chunklist1.m3u8
TVBS新闻,http://38.64.72.148/hls/modn/list/4006/playlist.m3u8
TVBS新闻,http://38.64.72.148:80/hls/modn/list/4006/chunklist0.m3u8
TVBS新闻,http://38.64.72.148:80/hls/modn/list/4006/chunklist1.m3u8
